%YAML 1.1
%TAG !u! tag:unity3d.com,2011:
--- !u!21 &2100000
Material:
  serializedVersion: 6
  m_ObjectHideFlags: 0
  m_PrefabParentObject: {fileID: 0}
  m_PrefabInternal: {fileID: 0}
  m_Name: Floor 4
  m_Shader: {fileID: 4800000, guid: a2ad4731882309547bc529e905ddc123, type: 3}
  m_ShaderKeywords: 
  m_LightmapFlags: 5
  m_CustomRenderQueue: 3000
  stringTagMap: {}
  m_SavedProperties:
    serializedVersion: 2
    m_TexEnvs:
      data:
        first:
          name: _MainTex
        second:
          m_Texture: {fileID: 0}
          m_Scale: {x: 1, y: 1}
          m_Offset: {x: 0, y: 0}
      data:
        first:
          name: _BumpMap
        second:
          m_Texture: {fileID: 2800000, guid: d14ea84f1dc384c50ae55e0dda86660a, type: 3}
          m_Scale: {x: 1, y: 1}
          m_Offset: {x: 0, y: 0}
      data:
        first:
          name: _Cube
        second:
          m_Texture: {fileID: 0}
          m_Scale: {x: 1, y: 1}
          m_Offset: {x: 0, y: 0}
    m_Floats:
      data:
        first:
          name: _Shininess
        second: 0.033
    m_Colors:
      data:
        first:
          name: _Color
        second: {r: 0.86764705, g: 0.0063797636, b: 0.0063797636, a: 0.609}
      data:
        first:
          name: _SpecColor
        second: {r: 0.5, g: 0.5, b: 0.5, a: 1}
      data:
        first:
          name: _ReflectColor
        second: {r: 1, g: 1, b: 1, a: 0.5}
