%YAML 1.1
%TAG !u! tag:unity3d.com,2011:
--- !u!114 &11400000
MonoBehaviour:
  m_ObjectHideFlags: 0
  m_PrefabParentObject: {fileID: 0}
  m_PrefabInternal: {fileID: 0}
  m_GameObject: {fileID: 0}
  m_Enabled: 1
  m_EditorHideFlags: 0
  m_Script: {fileID: 11500000, guid: 9448878e2e40f1a4c9f8fd2b56832b13, type: 3}
  m_Name: Female 1
  m_EditorClassIdentifier: 
  recipeString: '{"packedSlotDataList":[{"slotID":"FemaleEyes","overlayScale":100,"copyOverlayIndex":-1,"OverlayDataList":[{"overlayID":"EyeOverlay","colorList":null,"channelMaskList":null,"channelAdditiveMaskList":null,"rectList":null},{"overlayID":"EyeOverlayAdjust","colorList":[116,170,138,255],"channelMaskList":null,"channelAdditiveMaskList":null,"rectList":[64,64,128,128]}]},{"slotID":"FemaleFace","overlayScale":100,"copyOverlayIndex":-1,"OverlayDataList":[{"overlayID":"FemaleHead01","colorList":[208,215,213,255],"channelMaskList":null,"channelAdditiveMaskList":null,"rectList":null},{"overlayID":"FemaleEyebrow01","colorList":[31,16,16,255],"channelMaskList":null,"channelAdditiveMaskList":null,"rectList":[768,512,512,128]},{"overlayID":"FemaleLipstick01","colorList":[262,215,242,255],"channelMaskList":null,"channelAdditiveMaskList":null,"rectList":[960,407,128,64]},{"overlayID":"FemaleLongHair01","colorList":[198,148,211,255],"channelMaskList":null,"channelAdditiveMaskList":null,"rectList":null}]},{"slotID":"FemaleEyelash","overlayScale":100,"copyOverlayIndex":-1,"OverlayDataList":[{"overlayID":"FemaleEyelash","colorList":[0,0,0,255],"channelMaskList":null,"channelAdditiveMaskList":null,"rectList":null}]},{"slotID":"FemaleTorso","overlayScale":100,"copyOverlayIndex":-1,"OverlayDataList":[{"overlayID":"FemaleBody02","colorList":[208,215,213,255],"channelMaskList":null,"channelAdditiveMaskList":null,"rectList":null},{"overlayID":"FemaleUnderwear01","colorList":[176,111,157,255],"channelMaskList":null,"channelAdditiveMaskList":null,"rectList":[0,512,1024,512]},{"overlayID":"FemaleShirt02","colorList":[209,38,125,255],"channelMaskList":null,"channelAdditiveMaskList":null,"rectList":[0,512,1024,512]},{"overlayID":"FemaleJeans01","colorList":[56,49,123,255],"channelMaskList":null,"channelAdditiveMaskList":null,"rectList":null}]},{"slotID":"FemaleHands","overlayScale":100,"copyOverlayIndex":-1,"OverlayDataList":[{"overlayID":"FemaleBody02","colorList":[208,215,213,255],"channelMaskList":null,"channelAdditiveMaskList":null,"rectList":null},{"overlayID":"FemaleUnderwear01","colorList":[176,111,157,255],"channelMaskList":null,"channelAdditiveMaskList":null,"rectList":[0,1024,2048,1024]},{"overlayID":"FemaleShirt02","colorList":[209,38,125,255],"channelMaskList":null,"channelAdditiveMaskList":null,"rectList":[0,1024,2048,1024]},{"overlayID":"FemaleJeans01","colorList":[56,49,123,255],"channelMaskList":null,"channelAdditiveMaskList":null,"rectList":null}]},{"slotID":"FemaleInnerMouth","overlayScale":100,"copyOverlayIndex":-1,"OverlayDataList":[{"overlayID":"InnerMouth","colorList":null,"channelMaskList":null,"channelAdditiveMaskList":null,"rectList":null}]},{"slotID":"FemaleFeet","overlayScale":100,"copyOverlayIndex":-1,"OverlayDataList":[{"overlayID":"FemaleBody02","colorList":[208,215,213,255],"channelMaskList":null,"channelAdditiveMaskList":null,"rectList":null},{"overlayID":"FemaleUnderwear01","colorList":[176,111,157,255],"channelMaskList":null,"channelAdditiveMaskList":null,"rectList":[0,1024,2048,1024]},{"overlayID":"FemaleShirt02","colorList":[209,38,125,255],"channelMaskList":null,"channelAdditiveMaskList":null,"rectList":[0,1024,2048,1024]},{"overlayID":"FemaleJeans01","colorList":[56,49,123,255],"channelMaskList":null,"channelAdditiveMaskList":null,"rectList":null}]},{"slotID":"FemaleLegs","overlayScale":100,"copyOverlayIndex":-1,"OverlayDataList":[{"overlayID":"FemaleBody02","colorList":[208,215,213,255],"channelMaskList":null,"channelAdditiveMaskList":null,"rectList":null},{"overlayID":"FemaleUnderwear01","colorList":[176,111,157,255],"channelMaskList":null,"channelAdditiveMaskList":null,"rectList":[0,1024,2048,1024]},{"overlayID":"FemaleShirt02","colorList":[209,38,125,255],"channelMaskList":null,"channelAdditiveMaskList":null,"rectList":[0,1024,2048,1024]},{"overlayID":"FemaleJeans01","colorList":[56,49,123,255],"channelMaskList":null,"channelAdditiveMaskList":null,"rectList":null}]},{"slotID":"FemaleLongHair01","overlayScale":100,"copyOverlayIndex":-1,"OverlayDataList":[{"overlayID":"FemaleHead01","colorList":[208,215,213,255],"channelMaskList":null,"channelAdditiveMaskList":null,"rectList":null},{"overlayID":"FemaleEyebrow01","colorList":[31,16,16,255],"channelMaskList":null,"channelAdditiveMaskList":null,"rectList":[768,512,512,128]},{"overlayID":"FemaleLipstick01","colorList":[262,215,242,255],"channelMaskList":null,"channelAdditiveMaskList":null,"rectList":[960,407,128,64]},{"overlayID":"FemaleLongHair01","colorList":[198,148,211,255],"channelMaskList":null,"channelAdditiveMaskList":null,"rectList":null}]},{"slotID":"FemaleLongHair01_Module","overlayScale":100,"copyOverlayIndex":-1,"OverlayDataList":[{"overlayID":"FemaleLongHair01_Module","colorList":[198,148,211,255],"channelMaskList":null,"channelAdditiveMaskList":null,"rectList":null}]}],"race":"HumanFemale","umaDna":{},"packedDna":[{"dnaType":"UMADnaHumanoid","packedDna":"{\"height\":86,\"headSize\":126,\"headWidth\":137,\"neckThickness\":127,\"armLength\":128,\"forearmLength\":129,\"armWidth\":128,\"forearmWidth\":77,\"handsSize\":105,\"feetSize\":108,\"legSeparation\":105,\"upperMuscle\":51,\"lowerMuscle\":124,\"upperWeight\":105,\"lowerWeight\":121,\"legsSize\":137,\"belly\":89,\"waist\":96,\"gluteusSize\":166,\"earsSize\":143,\"earsPosition\":99,\"earsRotation\":156,\"noseSize\":128,\"noseCurve\":73,\"noseWidth\":131,\"noseInclination\":108,\"nosePosition\":159,\"nosePronounced\":159,\"noseFlatten\":67,\"chinSize\":118,\"chinPronounced\":61,\"chinPosition\":73,\"mandibleSize\":128,\"jawsSize\":137,\"jawsPosition\":131,\"cheekSize\":163,\"cheekPosition\":156,\"lowCheekPronounced\":121,\"lowCheekPosition\":92,\"foreheadSize\":150,\"foreheadPosition\":86,\"lipsSize\":80,\"mouthSize\":96,\"eyeRotation\":112,\"eyeSize\":128,\"breastSize\":185}"}]}'
  Hides: 
  Slot: 0
  Sex: 0
  SuppressSlot: 0
